C:\Users\baolu\Documents\NetBeansProjects\WebSocket\src\main\java\sna\sample\websocket\Record.java
C:\Users\baolu\Documents\NetBeansProjects\WebSocket\src\main\java\sna\sample\websocket\JsonEncoder.java
C:\Users\baolu\Documents\NetBeansProjects\WebSocket\src\main\java\sna\sample\websocket\JsonDecoder.java
C:\Users\baolu\Documents\NetBeansProjects\WebSocket\src\main\java\sna\sample\websocket\MainServerWSEndpoint.java
